Q2B - DS2 Finn Weber
…
set.seed(42)
train_test_split <- initial_split(d_hate_2, prop = .7, strata = class)
Hate_train <- training(train_test_split)
Hate_test <- testing(train_test_split)

Tokenisierung

Jetzt beginne ich mit der Tokenisierung

d_hate_token <- d_hate_2 %>%
  unnest_tokens(word, tweet)

print(d_hate_token)

# A tibble: 78,321 × 3
      id class word        
   <dbl> <chr> <chr>       
 1     0 other mayasolovely
 2     0 other as          
 3     0 other a           
 4     0 other woman       
 5     0 other you         
 6     0 other shouldn't   
 7     0 other complain    
 8     0 other about       
 9     0 other cleaning    
10     0 other up          
# ℹ 78,311 more rows
…
# Laden der englischen Stopwörter mit tidytext
stopwords_en <- data.frame(word = stop_words$word)

# Anwendung des anti_join() auf die d_hate_token Daten
d_hate_clean <- d_hate_token %>%
  anti_join(stopwords_en)

Joining with `by = join_by(word)`

# Ergebnisse anzeigen oder weiterverarbeiten
print(d_hate_clean)

# A tibble: 40,418 × 3
      id class word        
   <dbl> <chr> <chr>       
 1     0 other mayasolovely
 2     0 other woman       
 3     0 other complain    
 4     0 other cleaning    
 5     0 other house       
 6     0 other amp         
 7     0 other trash       
 8    40 other momma       
 9    40 other pussy       
10    40 other cats        
# ℹ 40,408 more rows

Sentimentannalyse

Jetzt beginne ich mit der Sentimentanalyse, um mir einen weiteren Überblick über die Daten zu verschaffen. Dafür benutze ich 3 Sentimentwörterbücher, die ich dann kombiniere.

library(tidytext)

get_sentiments("afinn")

# A tibble: 2,477 × 2
   word       value
   <chr>      <dbl>
 1 abandon       -2
 2 abandoned     -2
 3 abandons      -2
 4 abducted      -2
 5 abduction     -2
 6 abductions    -2
 7 abhor         -3
 8 abhorred      -3
 9 abhorrent     -3
10 abhors        -3
# ℹ 2,467 more rows

get_sentiments("bing")

# A tibble: 6,786 × 2
   word        sentiment
   <chr>       <chr>    
 1 2-faces     negative 
 2 abnormal    negative 
 3 abolish     negative 
 4 abominable  negative 
 5 abominably  negative 
 6 abominate   negative 
 7 abomination negative 
 8 abort       negative 
 9 aborted     negative 
10 aborts      negative 
# ℹ 6,776 more rows

get_sentiments("nrc")

# A tibble: 13,872 × 2
   word        sentiment
   <chr>       <chr>    
 1 abacus      trust    
 2 abandon     fear     
 3 abandon     negative 
 4 abandon     sadness  
 5 abandoned   anger    
 6 abandoned   fear     
 7 abandoned   negative 
 8 abandoned   sadness  
 9 abandonment anger    
10 abandonment fear     
# ℹ 13,862 more rows
…
nrow(d_hatetoken_SA)

[1] 7004

length(unique(d_hatetoken_SA$id))

[1] 1668

d_hatetoken_SA

# A tibble: 7,004 × 6
      id class word     value sentiment.y neg_pos_bing
   <dbl> <chr> <chr>    <dbl> <chr>       <chr>       
 1     0 other complain    -2 negative    neg         
 2     0 other complain    -2 negative    neg         
 3     0 other complain    -2 negative    neg         
 4    70 other scream      -2 negative    neg         
 5    70 other scream      -2 negative    neg         
 6    70 other scream      -2 negative    neg         
 7    70 other scream      -2 negative    neg         
 8    70 other scream      -2 negative    neg         
 9    75 other adorable     3 positive    pos         
10    75 other adorable     3 positive    pos         
# ℹ 6,994 more rows
…
